\relax 
\providecommand\hyper@newdestlabel[2]{}
\providecommand\HyperFirstAtBeginDocument{\AtBeginDocument}
\HyperFirstAtBeginDocument{\ifx\hyper@anchor\@undefined
\global\let\oldcontentsline\contentsline
\gdef\contentsline#1#2#3#4{\oldcontentsline{#1}{#2}{#3}}
\global\let\oldnewlabel\newlabel
\gdef\newlabel#1#2{\newlabelxx{#1}#2}
\gdef\newlabelxx#1#2#3#4#5#6{\oldnewlabel{#1}{{#2}{#3}}}
\AtEndDocument{\ifx\hyper@anchor\@undefined
\let\contentsline\oldcontentsline
\let\newlabel\oldnewlabel
\fi}
\fi}
\global\let\hyper@last\relax 
\gdef\HyperFirstAtBeginDocument#1{#1}
\providecommand\HyField@AuxAddToFields[1]{}
\providecommand\HyField@AuxAddToCoFields[2]{}
\@writefile{toc}{\contentsline {section}{\numberline {1}Introduction}{1}{section.1}}
\@writefile{toc}{\contentsline {section}{\numberline {2}RK4 algorithm}{1}{section.2}}
\@writefile{toc}{\contentsline {section}{\numberline {3}Superradiance}{2}{section.3}}
\@writefile{toc}{\contentsline {section}{\numberline {4}Modelling and Results}{2}{section.4}}
\@writefile{lof}{\contentsline {figure}{\numberline {1}{\ignorespaces The photon population as a function of time for $\kappa =0$\relax }}{3}{figure.caption.1}}
\@writefile{lof}{\contentsline {figure}{\numberline {2}{\ignorespaces The atom population as a function of time for $\kappa =0$\relax }}{3}{figure.caption.2}}
\@writefile{lof}{\contentsline {figure}{\numberline {3}{\ignorespaces The photon population as a function of time for $\kappa =0.5$\relax }}{4}{figure.caption.3}}
\@writefile{lof}{\contentsline {figure}{\numberline {4}{\ignorespaces The atom population as a function of time for $\kappa =0.5$\relax }}{4}{figure.caption.4}}
\@writefile{toc}{\contentsline {section}{\numberline {5}Conclusion}{4}{section.5}}
\@writefile{toc}{\contentsline {section}{\numberline {6}Reference}{4}{section.6}}
