X					f(X)							dt



..............ADAPTIVE ALGORITHM USED.....STEP SIZE dt increased.................

0.000200				0.000200					0.000200


..............ADAPTIVE ALGORITHM USED.....STEP SIZE dt increased.................

0.000600				0.000600					0.000400


..............ADAPTIVE ALGORITHM USED.....STEP SIZE dt increased.................

0.001400				0.001400					0.000800


..............ADAPTIVE ALGORITHM USED.....STEP SIZE dt increased.................

0.003000				0.003000					0.001600


..............ADAPTIVE ALGORITHM USED.....STEP SIZE dt increased.................

0.006200				0.006200					0.003200


..............ADAPTIVE ALGORITHM USED.....STEP SIZE dt increased.................

0.012600				0.012600					0.006400


..............ADAPTIVE ALGORITHM USED.....STEP SIZE dt increased.................

0.025400				0.025397					0.012800


..............ADAPTIVE ALGORITHM USED.....STEP SIZE dt increased.................

0.051000				0.050978					0.025600


..............ADAPTIVE ALGORITHM USED.....STEP SIZE dt increased.................

0.102200				0.102022					0.051200


..............ADAPTIVE ALGORITHM USED.....STEP SIZE dt increased.................

0.204600				0.203176					0.102400
0.307000				0.302200					0.102400
0.409400				0.398059					0.102400
0.511800				0.489747					0.102400
0.614200				0.576305					0.102400
0.716600				0.656825					0.102400
0.819000				0.730463					0.102400
0.921400				0.796449					0.102400
1.023800				0.854091					0.102400
1.126200				0.902784					0.102400
1.228600				0.942020					0.102400
1.331000				0.971386					0.102400
1.433400				0.990576					0.102400
1.535800				0.999388					0.102400
1.638200				0.997729					0.102400
1.740600				0.985618					0.102400
1.843000				0.963181					0.102400
1.945400				0.930653					0.102400
2.047800				0.888375					0.102400
2.150200				0.836789					0.102400
2.252600				0.776437					0.102400
2.355000				0.707951					0.102400
2.457400				0.632048					0.102400
2.559800				0.549523					0.102400
2.662200				0.461240					0.102400
2.764600				0.368126					0.102400
2.867000				0.271155					0.102400
2.969400				0.171343					0.102400


..............ADAPTIVE ALGORITHM USED.....STEP SIZE dt increased.................

3.174200				-0.032602					0.204800


..............ADAPTIVE ALGORITHM USED.....STEP SIZE dt decreased.................

3.276600				-0.134598					0.102400


..............ADAPTIVE ALGORITHM USED.....STEP SIZE dt increased.................

3.481400				-0.333306					0.204800


..............ADAPTIVE ALGORITHM USED.....STEP SIZE dt decreased.................

3.583800				-0.427936					0.102400


..............ADAPTIVE ALGORITHM USED.....STEP SIZE dt decreased.................

3.635000				-0.473630					0.051200


..............ADAPTIVE ALGORITHM USED.....STEP SIZE dt increased.................

3.737400				-0.561177					0.102400


..............ADAPTIVE ALGORITHM USED.....STEP SIZE dt decreased.................

3.788600				-0.602802					0.051200


..............ADAPTIVE ALGORITHM USED.....STEP SIZE dt increased.................

3.891000				-0.681205					0.102400


..............ADAPTIVE ALGORITHM USED.....STEP SIZE dt decreased.................

3.942200				-0.717779					0.051200


..............ADAPTIVE ALGORITHM USED.....STEP SIZE dt increased.................

4.044600				-0.785193					0.102400


..............ADAPTIVE ALGORITHM USED.....STEP SIZE dt decreased.................

4.095800				-0.815856					0.051200


..............ADAPTIVE ALGORITHM USED.....STEP SIZE dt increased.................

4.198200				-0.870692					0.102400


..............ADAPTIVE ALGORITHM USED.....STEP SIZE dt decreased.................

4.249400				-0.894722					0.051200


..............ADAPTIVE ALGORITHM USED.....STEP SIZE dt increased.................

4.351800				-0.935689					0.102400


..............ADAPTIVE ALGORITHM USED.....STEP SIZE dt decreased.................

4.403000				-0.952520					0.051200


..............ADAPTIVE ALGORITHM USED.....STEP SIZE dt increased.................

4.505400				-0.978654					0.102400


..............ADAPTIVE ALGORITHM USED.....STEP SIZE dt decreased.................

4.556600				-0.987890					0.051200


..............ADAPTIVE ALGORITHM USED.....STEP SIZE dt increased.................

4.659000				-0.998575					0.102400


..............ADAPTIVE ALGORITHM USED.....STEP SIZE dt decreased.................

4.710200				-0.999998					0.051200


..............ADAPTIVE ALGORITHM USED.....STEP SIZE dt increased.................

4.812600				-0.994983					0.102400


..............ADAPTIVE ALGORITHM USED.....STEP SIZE dt decreased.................

4.863800				-0.988559					0.051200


..............ADAPTIVE ALGORITHM USED.....STEP SIZE dt increased.................

4.966200				-0.967963					0.102400


..............ADAPTIVE ALGORITHM USED.....STEP SIZE dt decreased.................

5.017400				-0.953844					0.051200


..............ADAPTIVE ALGORITHM USED.....STEP SIZE dt increased.................

5.119800				-0.918150					0.102400


..............ADAPTIVE ALGORITHM USED.....STEP SIZE dt decreased.................

5.171000				-0.896669					0.051200


..............ADAPTIVE ALGORITHM USED.....STEP SIZE dt increased.................

5.273400				-0.846718					0.102400


..............ADAPTIVE ALGORITHM USED.....STEP SIZE dt decreased.................

5.324600				-0.818380					0.051200


..............ADAPTIVE ALGORITHM USED.....STEP SIZE dt increased.................

5.427000				-0.755348					0.102400


..............ADAPTIVE ALGORITHM USED.....STEP SIZE dt decreased.................

5.478200				-0.720821					0.051200


..............ADAPTIVE ALGORITHM USED.....STEP SIZE dt increased.................

5.580600				-0.646193					0.102400


..............ADAPTIVE ALGORITHM USED.....STEP SIZE dt decreased.................

5.631800				-0.606289					0.051200


..............ADAPTIVE ALGORITHM USED.....STEP SIZE dt increased.................

5.734200				-0.521822					0.102400


..............ADAPTIVE ALGORITHM USED.....STEP SIZE dt decreased.................

5.785400				-0.477481					0.051200


..............ADAPTIVE ALGORITHM USED.....STEP SIZE dt increased.................

5.887800				-0.385164					0.102400


..............ADAPTIVE ALGORITHM USED.....STEP SIZE dt increased.................

6.092600				-0.189434					0.204800


..............ADAPTIVE ALGORITHM USED.....STEP SIZE dt increased.................

6.502200				0.217272					0.409600
6.911800				0.588032					0.409600
7.321400				0.861509					0.409600
7.731000				0.992459					0.409600
8.140600				0.959217					0.409600
8.550200				0.767282					0.409600
8.959800				0.448409					0.409600
9.369400				0.055352					0.409600


..............ADAPTIVE ALGORITHM USED.....STEP SIZE dt decreased.................

9.574200				-0.148864					0.204800


..............ADAPTIVE ALGORITHM USED.....STEP SIZE dt decreased.................

9.676600				-0.249167					0.102400


..............ADAPTIVE ALGORITHM USED.....STEP SIZE dt increased.................

9.881400				-0.440917					0.204800


..............ADAPTIVE ALGORITHM USED.....STEP SIZE dt decreased.................

9.983800				-0.530355					0.102400


..............ADAPTIVE ALGORITHM USED.....STEP SIZE dt decreased.................

10.035000				-0.573047					0.051200


..............ADAPTIVE ALGORITHM USED.....STEP SIZE dt increased.................

10.137400				-0.653818					0.102400


..............ADAPTIVE ALGORITHM USED.....STEP SIZE dt decreased.................

10.188600				-0.691685					0.051200


..............ADAPTIVE ALGORITHM USED.....STEP SIZE dt increased.................

10.291000				-0.761885					0.102400


..............ADAPTIVE ALGORITHM USED.....STEP SIZE dt decreased.................

10.342200				-0.794035					0.051200


..............ADAPTIVE ALGORITHM USED.....STEP SIZE dt increased.................

10.444600				-0.852013					0.102400


..............ADAPTIVE ALGORITHM USED.....STEP SIZE dt decreased.................

10.495800				-0.877689					0.051200


..............ADAPTIVE ALGORITHM USED.....STEP SIZE dt increased.................

10.598200				-0.922078					0.102400


..............ADAPTIVE ALGORITHM USED.....STEP SIZE dt decreased.................

10.649400				-0.940676					0.051200


..............ADAPTIVE ALGORITHM USED.....STEP SIZE dt increased.................

10.751800				-0.970432					0.102400


..............ADAPTIVE ALGORITHM USED.....STEP SIZE dt decreased.................

10.803000				-0.981513					0.051200


..............ADAPTIVE ALGORITHM USED.....STEP SIZE dt increased.................

10.905400				-0.995935					0.102400


..............ADAPTIVE ALGORITHM USED.....STEP SIZE dt decreased.................

10.956600				-0.999239					0.051200


..............ADAPTIVE ALGORITHM USED.....STEP SIZE dt increased.................

11.059000				-0.997987					0.102400


..............ADAPTIVE ALGORITHM USED.....STEP SIZE dt decreased.................

11.110200				-0.993436					0.051200


..............ADAPTIVE ALGORITHM USED.....STEP SIZE dt increased.................

11.212600				-0.976540					0.102400


..............ADAPTIVE ALGORITHM USED.....STEP SIZE dt decreased.................

11.263800				-0.964241					0.051200


..............ADAPTIVE ALGORITHM USED.....STEP SIZE dt increased.................

11.366200				-0.932099					0.102400


..............ADAPTIVE ALGORITHM USED.....STEP SIZE dt decreased.................

11.417400				-0.912341					0.051200


..............ADAPTIVE ALGORITHM USED.....STEP SIZE dt increased.................

11.519800				-0.865710					0.102400


..............ADAPTIVE ALGORITHM USED.....STEP SIZE dt decreased.................

11.571000				-0.838959					0.051200


..............ADAPTIVE ALGORITHM USED.....STEP SIZE dt increased.................

11.673400				-0.778936					0.102400


..............ADAPTIVE ALGORITHM USED.....STEP SIZE dt decreased.................

11.724600				-0.745822					0.051200


..............ADAPTIVE ALGORITHM USED.....STEP SIZE dt increased.................

11.827000				-0.673821					0.102400


..............ADAPTIVE ALGORITHM USED.....STEP SIZE dt decreased.................

11.878200				-0.635123					0.051200


..............ADAPTIVE ALGORITHM USED.....STEP SIZE dt increased.................

11.980600				-0.552840					0.102400


..............ADAPTIVE ALGORITHM USED.....STEP SIZE dt decreased.................

12.031800				-0.509470					0.051200


..............ADAPTIVE ALGORITHM USED.....STEP SIZE dt increased.................

12.134200				-0.418841					0.102400


..............ADAPTIVE ALGORITHM USED.....STEP SIZE dt increased.................

12.339000				-0.225414					0.204800


..............ADAPTIVE ALGORITHM USED.....STEP SIZE dt decreased.................

12.441400				-0.124643					0.102400


..............ADAPTIVE ALGORITHM USED.....STEP SIZE dt increased.................

12.646200				0.079747					0.204800
12.851000				0.280804					0.204800
13.055800				0.470125					0.204800
13.260600				0.639796					0.204800
13.465400				0.782726					0.204800
13.670200				0.892941					0.204800
13.875000				0.965833					0.204800
14.079800				0.998358					0.204800
14.284600				0.989154					0.204800
14.489400				0.938607					0.204800
14.694200				0.848830					0.204800
14.899000				0.723575					0.204800
15.103800				0.568076					0.204800
15.308600				0.388834					0.204800
15.513400				0.193340					0.204800


..............ADAPTIVE ALGORITHM USED.....STEP SIZE dt increased.................

15.923000				-0.213385					0.409600


..............ADAPTIVE ALGORITHM USED.....STEP SIZE dt decreased.................

16.127800				-0.407613					0.204800


..............ADAPTIVE ALGORITHM USED.....STEP SIZE dt decreased.................

16.230200				-0.498822					0.102400


..............ADAPTIVE ALGORITHM USED.....STEP SIZE dt decreased.................

16.281400				-0.542524					0.051200


..............ADAPTIVE ALGORITHM USED.....STEP SIZE dt increased.................

16.383800				-0.625552					0.102400


..............ADAPTIVE ALGORITHM USED.....STEP SIZE dt decreased.................

16.435000				-0.664660					0.051200


..............ADAPTIVE ALGORITHM USED.....STEP SIZE dt increased.................

16.537400				-0.737553					0.102400


..............ADAPTIVE ALGORITHM USED.....STEP SIZE dt decreased.................

16.588600				-0.771146					0.051200


..............ADAPTIVE ALGORITHM USED.....STEP SIZE dt increased.................

16.691000				-0.832187					0.102400


..............ADAPTIVE ALGORITHM USED.....STEP SIZE dt decreased.................

16.742200				-0.859474					0.051200


..............ADAPTIVE ALGORITHM USED.....STEP SIZE dt increased.................

16.844600				-0.907226					0.102400


..............ADAPTIVE ALGORITHM USED.....STEP SIZE dt decreased.................

16.895800				-0.927565					0.051200


..............ADAPTIVE ALGORITHM USED.....STEP SIZE dt increased.................

16.998200				-0.960902					0.102400


..............ADAPTIVE ALGORITHM USED.....STEP SIZE dt decreased.................

17.049400				-0.973814					0.051200


..............ADAPTIVE ALGORITHM USED.....STEP SIZE dt increased.................

17.151800				-0.991953					0.102400


..............ADAPTIVE ALGORITHM USED.....STEP SIZE dt decreased.................

17.203000				-0.997133					0.051200


..............ADAPTIVE ALGORITHM USED.....STEP SIZE dt increased.................

17.305400				-0.999647					0.102400


..............ADAPTIVE ALGORITHM USED.....STEP SIZE dt decreased.................

17.356600				-0.996974					0.051200


..............ADAPTIVE ALGORITHM USED.....STEP SIZE dt increased.................

17.459000				-0.983802					0.102400


..............ADAPTIVE ALGORITHM USED.....STEP SIZE dt decreased.................

17.510200				-0.973339					0.051200


..............ADAPTIVE ALGORITHM USED.....STEP SIZE dt increased.................

17.612600				-0.944793					0.102400


..............ADAPTIVE ALGORITHM USED.....STEP SIZE dt decreased.................

17.663800				-0.926785					0.051200


..............ADAPTIVE ALGORITHM USED.....STEP SIZE dt increased.................

17.766200				-0.883536					0.102400


..............ADAPTIVE ALGORITHM USED.....STEP SIZE dt decreased.................

17.817400				-0.858409					0.051200


..............ADAPTIVE ALGORITHM USED.....STEP SIZE dt increased.................

17.919800				-0.801476					0.102400


..............ADAPTIVE ALGORITHM USED.....STEP SIZE dt decreased.................

17.971000				-0.769820					0.051200


..............ADAPTIVE ALGORITHM USED.....STEP SIZE dt increased.................

18.073400				-0.700543					0.102400


..............ADAPTIVE ALGORITHM USED.....STEP SIZE dt decreased.................

18.124600				-0.663104					0.051200


..............ADAPTIVE ALGORITHM USED.....STEP SIZE dt increased.................

18.227000				-0.583115					0.102400


..............ADAPTIVE ALGORITHM USED.....STEP SIZE dt decreased.................

18.278200				-0.540775					0.051200


..............ADAPTIVE ALGORITHM USED.....STEP SIZE dt increased.................

18.380600				-0.451957					0.102400


..............ADAPTIVE ALGORITHM USED.....STEP SIZE dt decreased.................

18.431800				-0.405712					0.051200


..............ADAPTIVE ALGORITHM USED.....STEP SIZE dt increased.................

18.534200				-0.310157					0.102400


..............ADAPTIVE ALGORITHM USED.....STEP SIZE dt increased.................

18.739000				-0.110332					0.204800
18.943800				0.094103					0.204800
19.148600				0.294605					0.204800
19.353400				0.482794					0.204800
19.558200				0.650804					0.204800
19.763000				0.791612					0.204800
19.967800				0.899333					0.204800
20.172600				0.969465					0.204800
20.377400				0.999077					0.204800
20.582200				0.986930					0.204800
20.787000				0.933533					0.204800
20.991800				0.841118					0.204800
21.196600				0.713546					0.204800
21.401400				0.556151					0.204800
21.606200				0.375510					0.204800
21.811000				0.179174					0.204800


..............ADAPTIVE ALGORITHM USED.....STEP SIZE dt increased.................

22.220600				-0.227449					0.409600


..............ADAPTIVE ALGORITHM USED.....STEP SIZE dt decreased.................

22.425400				-0.420737					0.204800


..............ADAPTIVE ALGORITHM USED.....STEP SIZE dt decreased.................

22.527800				-0.511267					0.102400


..............ADAPTIVE ALGORITHM USED.....STEP SIZE dt decreased.................

22.579000				-0.554580					0.051200


..............ADAPTIVE ALGORITHM USED.....STEP SIZE dt increased.................

22.681400				-0.636737					0.102400


..............ADAPTIVE ALGORITHM USED.....STEP SIZE dt decreased.................

22.732600				-0.675365					0.051200


..............ADAPTIVE ALGORITHM USED.....STEP SIZE dt increased.................

22.835000				-0.747214					0.102400


..............ADAPTIVE ALGORITHM USED.....STEP SIZE dt decreased.................

22.886200				-0.780247					0.051200


..............ADAPTIVE ALGORITHM USED.....STEP SIZE dt increased.................

22.988600				-0.840097					0.102400


..............ADAPTIVE ALGORITHM USED.....STEP SIZE dt decreased.................

23.039800				-0.866757					0.051200


..............ADAPTIVE ALGORITHM USED.....STEP SIZE dt increased.................

23.142200				-0.913199					0.102400


..............ADAPTIVE ALGORITHM USED.....STEP SIZE dt decreased.................

23.193400				-0.932858					0.051200


..............ADAPTIVE ALGORITHM USED.....STEP SIZE dt increased.................

23.295800				-0.964798					0.102400


..............ADAPTIVE ALGORITHM USED.....STEP SIZE dt decreased.................

23.347000				-0.976994					0.051200


..............ADAPTIVE ALGORITHM USED.....STEP SIZE dt increased.................

23.449400				-0.993679					0.102400


..............ADAPTIVE ALGORITHM USED.....STEP SIZE dt decreased.................

23.500600				-0.998125					0.051200


..............ADAPTIVE ALGORITHM USED.....STEP SIZE dt increased.................

23.603000				-0.999163					0.102400


..............ADAPTIVE ALGORITHM USED.....STEP SIZE dt decreased.................

23.654200				-0.995753					0.051200


..............ADAPTIVE ALGORITHM USED.....STEP SIZE dt increased.................

23.756600				-0.981120					0.102400


..............ADAPTIVE ALGORITHM USED.....STEP SIZE dt decreased.................

23.807800				-0.969935					0.051200


..............ADAPTIVE ALGORITHM USED.....STEP SIZE dt increased.................

23.910200				-0.939975					0.102400


..............ADAPTIVE ALGORITHM USED.....STEP SIZE dt decreased.................

23.961400				-0.921279					0.051200


..............ADAPTIVE ALGORITHM USED.....STEP SIZE dt increased.................

24.063800				-0.876697					0.102400


..............ADAPTIVE ALGORITHM USED.....STEP SIZE dt decreased.................

24.115000				-0.850929					0.051200


..............ADAPTIVE ALGORITHM USED.....STEP SIZE dt increased.................

24.217400				-0.792776					0.102400


..............ADAPTIVE ALGORITHM USED.....STEP SIZE dt decreased.................

24.268600				-0.760544					0.051200


..............ADAPTIVE ALGORITHM USED.....STEP SIZE dt increased.................

24.371000				-0.690188					0.102400


..............ADAPTIVE ALGORITHM USED.....STEP SIZE dt decreased.................

24.422200				-0.652250					0.051200


..............ADAPTIVE ALGORITHM USED.....STEP SIZE dt increased.................

24.524600				-0.571349					0.102400


..............ADAPTIVE ALGORITHM USED.....STEP SIZE dt decreased.................

24.575800				-0.528598					0.051200


..............ADAPTIVE ALGORITHM USED.....STEP SIZE dt increased.................

24.678200				-0.439056					0.102400


..............ADAPTIVE ALGORITHM USED.....STEP SIZE dt decreased.................

24.729400				-0.392499					0.051200


..............ADAPTIVE ALGORITHM USED.....STEP SIZE dt increased.................

24.831800				-0.296425					0.102400


..............ADAPTIVE ALGORITHM USED.....STEP SIZE dt increased.................

25.036600				-0.095999					0.204800
25.241400				0.108440					0.204800
25.446200				0.308346					0.204800
25.651000				0.495363					0.204800
25.855800				0.661676					0.204800
26.060600				0.800333					0.204800
26.265400				0.905539					0.204800
26.470200				0.972895					0.204800
26.675000				0.999588					0.204800
26.879800				0.984501					0.204800
27.084600				0.928265					0.204800
27.289400				0.833231					0.204800
27.494200				0.703370					0.204800
27.699000				0.544110					0.204800
27.903800				0.362108					0.204800
28.108600				0.164971					0.204800


..............ADAPTIVE ALGORITHM USED.....STEP SIZE dt increased.................

28.518200				-0.241465					0.409600


..............ADAPTIVE ALGORITHM USED.....STEP SIZE dt decreased.................

28.723000				-0.433773					0.204800


..............ADAPTIVE ALGORITHM USED.....STEP SIZE dt decreased.................

28.825400				-0.523605					0.102400


..............ADAPTIVE ALGORITHM USED.....STEP SIZE dt decreased.................

28.876600				-0.566521					0.051200


..............ADAPTIVE ALGORITHM USED.....STEP SIZE dt increased.................

28.979000				-0.647789					0.102400


..............ADAPTIVE ALGORITHM USED.....STEP SIZE dt decreased.................

29.030200				-0.685929					0.051200


..............ADAPTIVE ALGORITHM USED.....STEP SIZE dt increased.................

29.132600				-0.756720					0.102400


..............ADAPTIVE ALGORITHM USED.....STEP SIZE dt decreased.................

29.183800				-0.789185					0.051200


..............ADAPTIVE ALGORITHM USED.....STEP SIZE dt increased.................

29.286200				-0.847832					0.102400


..............ADAPTIVE ALGORITHM USED.....STEP SIZE dt decreased.................

29.337400				-0.873860					0.051200


..............ADAPTIVE ALGORITHM USED.....STEP SIZE dt increased.................

29.439800				-0.918982					0.102400


..............ADAPTIVE ALGORITHM USED.....STEP SIZE dt decreased.................

29.491000				-0.937958					0.051200


..............ADAPTIVE ALGORITHM USED.....STEP SIZE dt increased.................

29.593400				-0.968492					0.102400


..............ADAPTIVE ALGORITHM USED.....STEP SIZE dt decreased.................

29.644600				-0.979971					0.051200


..............ADAPTIVE ALGORITHM USED.....STEP SIZE dt increased.................

29.747000				-0.995199					0.102400


..............ADAPTIVE ALGORITHM USED.....STEP SIZE dt decreased.................

29.798200				-0.998908					0.051200


..............ADAPTIVE ALGORITHM USED.....STEP SIZE dt increased.................

29.900600				-0.998471					0.102400


..............ADAPTIVE ALGORITHM USED.....STEP SIZE dt decreased.................

29.951800				-0.994326					0.051200


..............ADAPTIVE ALGORITHM USED.....STEP SIZE dt increased.................

30.054200				-0.978234					0.102400


..............ADAPTIVE ALGORITHM USED.....STEP SIZE dt decreased.................

30.105400				-0.966330					0.051200


..............ADAPTIVE ALGORITHM USED.....STEP SIZE dt increased.................

30.207800				-0.934962					0.102400


..............ADAPTIVE ALGORITHM USED.....STEP SIZE dt decreased.................

30.259000				-0.915581					0.051200


..............ADAPTIVE ALGORITHM USED.....STEP SIZE dt increased.................

30.361400				-0.869676					0.102400


..............ADAPTIVE ALGORITHM USED.....STEP SIZE dt decreased.................

30.412600				-0.843273					0.051200


..............ADAPTIVE ALGORITHM USED.....STEP SIZE dt increased.................

30.515000				-0.783912					0.102400


..............ADAPTIVE ALGORITHM USED.....STEP SIZE dt decreased.................

30.566200				-0.751109					0.051200


..............ADAPTIVE ALGORITHM USED.....STEP SIZE dt increased.................

30.668600				-0.679690					0.102400


..............ADAPTIVE ALGORITHM USED.....STEP SIZE dt decreased.................

30.719800				-0.641260					0.051200


..............ADAPTIVE ALGORITHM USED.....STEP SIZE dt increased.................

30.822200				-0.559463					0.102400


..............ADAPTIVE ALGORITHM USED.....STEP SIZE dt decreased.................

30.873400				-0.516311					0.051200


..............ADAPTIVE ALGORITHM USED.....STEP SIZE dt increased.................

30.975800				-0.426063					0.102400


..............ADAPTIVE ALGORITHM USED.....STEP SIZE dt increased.................

31.180600				-0.233170					0.204800


..............ADAPTIVE ALGORITHM USED.....STEP SIZE dt decreased.................

31.283000				-0.132545					0.102400


..............ADAPTIVE ALGORITHM USED.....STEP SIZE dt increased.................

31.487800				0.071802					0.204800
