\relax 
\select@language{english}
\@writefile{toc}{\select@language{english}}
\@writefile{lof}{\select@language{english}}
\@writefile{lot}{\select@language{english}}
\@writefile{toc}{\contentsline {section}{\numberline {1}Error Function}{1}}
\@writefile{lof}{\contentsline {figure}{\numberline {1}{\ignorespaces Plot of error function as computed by the GSL.}}{2}}
