<?xml version="1.0" encoding="utf-8"  standalone="no"?>
<!DOCTYPE svg PUBLIC "-//W3C//DTD SVG 1.1//EN"
 "http://www.w3.org/Graphics/SVG/1.1/DTD/svg11.dtd">
<svg 
 width="600" height="480"
 viewBox="0 0 600 480"
 xmlns="http://www.w3.org/2000/svg"
 xmlns:xlink="http://www.w3.org/1999/xlink"
>

<title>Gnuplot</title>
<desc>Produced by GNUPLOT 5.0 patchlevel 3 </desc>

<g id="gnuplot_canvas">

<rect x="0" y="0" width="600" height="480" fill="#ffffff"/>
<defs>

	<circle id='gpDot' r='0.5' stroke-width='0.5'/>
	<path id='gpPt0' stroke-width='0.222' stroke='currentColor' d='M-1,0 h2 M0,-1 v2'/>
	<path id='gpPt1' stroke-width='0.222' stroke='currentColor' d='M-1,-1 L1,1 M1,-1 L-1,1'/>
	<path id='gpPt2' stroke-width='0.222' stroke='currentColor' d='M-1,0 L1,0 M0,-1 L0,1 M-1,-1 L1,1 M-1,1 L1,-1'/>
	<rect id='gpPt3' stroke-width='0.222' stroke='currentColor' x='-1' y='-1' width='2' height='2'/>
	<rect id='gpPt4' stroke-width='0.222' stroke='currentColor' fill='currentColor' x='-1' y='-1' width='2' height='2'/>
	<circle id='gpPt5' stroke-width='0.222' stroke='currentColor' cx='0' cy='0' r='1'/>
	<use xlink:href='#gpPt5' id='gpPt6' fill='currentColor' stroke='none'/>
	<path id='gpPt7' stroke-width='0.222' stroke='currentColor' d='M0,-1.33 L-1.33,0.67 L1.33,0.67 z'/>
	<use xlink:href='#gpPt7' id='gpPt8' fill='currentColor' stroke='none'/>
	<use xlink:href='#gpPt7' id='gpPt9' stroke='currentColor' transform='rotate(180)'/>
	<use xlink:href='#gpPt9' id='gpPt10' fill='currentColor' stroke='none'/>
	<use xlink:href='#gpPt3' id='gpPt11' stroke='currentColor' transform='rotate(45)'/>
	<use xlink:href='#gpPt11' id='gpPt12' fill='currentColor' stroke='none'/>
	<path id='gpPt13' stroke-width='0.222' stroke='currentColor' d='M0,1.330 L1.265,0.411 L0.782,-1.067 L-0.782,-1.076 L-1.265,0.411 z'/>
	<use xlink:href='#gpPt13' id='gpPt14' fill='currentColor' stroke='none'/>
	<filter id='textbox' filterUnits='objectBoundingBox' x='0' y='0' height='1' width='1'>
	  <feFlood flood-color='#FFFFFF' flood-opacity='1' result='bgnd'/>
	  <feComposite in='SourceGraphic' in2='bgnd' operator='atop'/>
	</filter>
	<filter id='greybox' filterUnits='objectBoundingBox' x='0' y='0' height='1' width='1'>
	  <feFlood flood-color='lightgrey' flood-opacity='1' result='grey'/>
	  <feComposite in='SourceGraphic' in2='grey' operator='atop'/>
	</filter>
</defs>
<g fill="none" color="#FFFFFF" stroke="currentColor" stroke-width="1.00" stroke-linecap="butt" stroke-linejoin="miter">
</g>
<g fill="none" color="black" stroke="currentColor" stroke-width="1.00" stroke-linecap="butt" stroke-linejoin="miter">
	<path stroke='black'  d='M62.2,444.0 L71.2,444.0 M575.0,444.0 L566.0,444.0  '/>	<g transform="translate(53.9,448.5)" stroke="none" fill="black" font-family="Arial" font-size="12.00"  text-anchor="end">
		<text><tspan font-family="Arial" > 0.5</tspan></text>
	</g>
</g>
<g fill="none" color="black" stroke="currentColor" stroke-width="1.00" stroke-linecap="butt" stroke-linejoin="miter">
	<path stroke='black'  d='M62.2,401.3 L71.2,401.3 M575.0,401.3 L566.0,401.3  '/>	<g transform="translate(53.9,405.8)" stroke="none" fill="black" font-family="Arial" font-size="12.00"  text-anchor="end">
		<text><tspan font-family="Arial" > 0.55</tspan></text>
	</g>
</g>
<g fill="none" color="black" stroke="currentColor" stroke-width="1.00" stroke-linecap="butt" stroke-linejoin="miter">
	<path stroke='black'  d='M62.2,358.5 L71.2,358.5 M575.0,358.5 L566.0,358.5  '/>	<g transform="translate(53.9,363.0)" stroke="none" fill="black" font-family="Arial" font-size="12.00"  text-anchor="end">
		<text><tspan font-family="Arial" > 0.6</tspan></text>
	</g>
</g>
<g fill="none" color="black" stroke="currentColor" stroke-width="1.00" stroke-linecap="butt" stroke-linejoin="miter">
	<path stroke='black'  d='M62.2,315.8 L71.2,315.8 M575.0,315.8 L566.0,315.8  '/>	<g transform="translate(53.9,320.3)" stroke="none" fill="black" font-family="Arial" font-size="12.00"  text-anchor="end">
		<text><tspan font-family="Arial" > 0.65</tspan></text>
	</g>
</g>
<g fill="none" color="black" stroke="currentColor" stroke-width="1.00" stroke-linecap="butt" stroke-linejoin="miter">
	<path stroke='black'  d='M62.2,273.1 L71.2,273.1 M575.0,273.1 L566.0,273.1  '/>	<g transform="translate(53.9,277.6)" stroke="none" fill="black" font-family="Arial" font-size="12.00"  text-anchor="end">
		<text><tspan font-family="Arial" > 0.7</tspan></text>
	</g>
</g>
<g fill="none" color="black" stroke="currentColor" stroke-width="1.00" stroke-linecap="butt" stroke-linejoin="miter">
	<path stroke='black'  d='M62.2,230.3 L71.2,230.3 M575.0,230.3 L566.0,230.3  '/>	<g transform="translate(53.9,234.8)" stroke="none" fill="black" font-family="Arial" font-size="12.00"  text-anchor="end">
		<text><tspan font-family="Arial" > 0.75</tspan></text>
	</g>
</g>
<g fill="none" color="black" stroke="currentColor" stroke-width="1.00" stroke-linecap="butt" stroke-linejoin="miter">
	<path stroke='black'  d='M62.2,187.6 L71.2,187.6 M575.0,187.6 L566.0,187.6  '/>	<g transform="translate(53.9,192.1)" stroke="none" fill="black" font-family="Arial" font-size="12.00"  text-anchor="end">
		<text><tspan font-family="Arial" > 0.8</tspan></text>
	</g>
</g>
<g fill="none" color="black" stroke="currentColor" stroke-width="1.00" stroke-linecap="butt" stroke-linejoin="miter">
	<path stroke='black'  d='M62.2,144.9 L71.2,144.9 M575.0,144.9 L566.0,144.9  '/>	<g transform="translate(53.9,149.4)" stroke="none" fill="black" font-family="Arial" font-size="12.00"  text-anchor="end">
		<text><tspan font-family="Arial" > 0.85</tspan></text>
	</g>
</g>
<g fill="none" color="black" stroke="currentColor" stroke-width="1.00" stroke-linecap="butt" stroke-linejoin="miter">
	<path stroke='black'  d='M62.2,102.2 L71.2,102.2 M575.0,102.2 L566.0,102.2  '/>	<g transform="translate(53.9,106.7)" stroke="none" fill="black" font-family="Arial" font-size="12.00"  text-anchor="end">
		<text><tspan font-family="Arial" > 0.9</tspan></text>
	</g>
</g>
<g fill="none" color="black" stroke="currentColor" stroke-width="1.00" stroke-linecap="butt" stroke-linejoin="miter">
	<path stroke='black'  d='M62.2,59.4 L71.2,59.4 M575.0,59.4 L566.0,59.4  '/>	<g transform="translate(53.9,63.9)" stroke="none" fill="black" font-family="Arial" font-size="12.00"  text-anchor="end">
		<text><tspan font-family="Arial" > 0.95</tspan></text>
	</g>
</g>
<g fill="none" color="black" stroke="currentColor" stroke-width="1.00" stroke-linecap="butt" stroke-linejoin="miter">
	<path stroke='black'  d='M62.2,16.7 L71.2,16.7 M575.0,16.7 L566.0,16.7  '/>	<g transform="translate(53.9,21.2)" stroke="none" fill="black" font-family="Arial" font-size="12.00"  text-anchor="end">
		<text><tspan font-family="Arial" > 1</tspan></text>
	</g>
</g>
<g fill="none" color="black" stroke="currentColor" stroke-width="1.00" stroke-linecap="butt" stroke-linejoin="miter">
	<path stroke='black'  d='M62.2,444.0 L62.2,435.0 M62.2,16.7 L62.2,25.7  '/>	<g transform="translate(62.2,466.5)" stroke="none" fill="black" font-family="Arial" font-size="12.00"  text-anchor="middle">
		<text><tspan font-family="Arial" > 0</tspan></text>
	</g>
</g>
<g fill="none" color="black" stroke="currentColor" stroke-width="1.00" stroke-linecap="butt" stroke-linejoin="miter">
	<path stroke='black'  d='M164.8,444.0 L164.8,435.0 M164.8,16.7 L164.8,25.7  '/>	<g transform="translate(164.8,466.5)" stroke="none" fill="black" font-family="Arial" font-size="12.00"  text-anchor="middle">
		<text><tspan font-family="Arial" > 1</tspan></text>
	</g>
</g>
<g fill="none" color="black" stroke="currentColor" stroke-width="1.00" stroke-linecap="butt" stroke-linejoin="miter">
	<path stroke='black'  d='M267.3,444.0 L267.3,435.0 M267.3,16.7 L267.3,25.7  '/>	<g transform="translate(267.3,466.5)" stroke="none" fill="black" font-family="Arial" font-size="12.00"  text-anchor="middle">
		<text><tspan font-family="Arial" > 2</tspan></text>
	</g>
</g>
<g fill="none" color="black" stroke="currentColor" stroke-width="1.00" stroke-linecap="butt" stroke-linejoin="miter">
	<path stroke='black'  d='M369.9,444.0 L369.9,435.0 M369.9,16.7 L369.9,25.7  '/>	<g transform="translate(369.9,466.5)" stroke="none" fill="black" font-family="Arial" font-size="12.00"  text-anchor="middle">
		<text><tspan font-family="Arial" > 3</tspan></text>
	</g>
</g>
<g fill="none" color="black" stroke="currentColor" stroke-width="1.00" stroke-linecap="butt" stroke-linejoin="miter">
	<path stroke='black'  d='M472.4,444.0 L472.4,435.0 M472.4,16.7 L472.4,25.7  '/>	<g transform="translate(472.4,466.5)" stroke="none" fill="black" font-family="Arial" font-size="12.00"  text-anchor="middle">
		<text><tspan font-family="Arial" > 4</tspan></text>
	</g>
</g>
<g fill="none" color="black" stroke="currentColor" stroke-width="1.00" stroke-linecap="butt" stroke-linejoin="miter">
	<path stroke='black'  d='M575.0,444.0 L575.0,435.0 M575.0,16.7 L575.0,25.7  '/>	<g transform="translate(575.0,466.5)" stroke="none" fill="black" font-family="Arial" font-size="12.00"  text-anchor="middle">
		<text><tspan font-family="Arial" > 5</tspan></text>
	</g>
</g>
<g fill="none" color="black" stroke="currentColor" stroke-width="1.00" stroke-linecap="butt" stroke-linejoin="miter">
</g>
<g fill="none" color="black" stroke="currentColor" stroke-width="1.00" stroke-linecap="butt" stroke-linejoin="miter">
	<path stroke='black'  d='M62.2,16.7 L62.2,444.0 L575.0,444.0 L575.0,16.7 L62.2,16.7 Z  '/></g>
<g fill="none" color="black" stroke="currentColor" stroke-width="1.00" stroke-linecap="butt" stroke-linejoin="miter">
</g>
	<g id="gnuplot_plot_1" ><title>'data'</title>
<g fill="none" color="black" stroke="currentColor" stroke-width="1.00" stroke-linecap="butt" stroke-linejoin="miter">
	<g transform="translate(507.9,39.2)" stroke="none" fill="black" font-family="Arial" font-size="12.00"  text-anchor="end">
		<text>'data'</text>
	</g>
</g>
<g fill="none" color="black" stroke="currentColor" stroke-width="1.00" stroke-linecap="butt" stroke-linejoin="miter">
	<path stroke='rgb(148,   0, 211)'  d='M516.2,34.7 L558.4,34.7 M62.2,444.0 L63.2,441.9 L64.3,439.7 L65.3,437.6 L66.3,435.5 L67.3,433.3
		L68.4,431.2 L69.4,429.1 L70.4,426.9 L71.4,424.8 L72.5,422.7 L73.5,420.5 L74.5,418.4 L75.5,416.3
		L76.6,414.1 L77.6,412.0 L78.6,409.9 L79.6,407.8 L80.7,405.6 L81.7,403.5 L82.7,401.4 L83.7,399.3
		L84.8,397.2 L85.8,395.1 L86.8,393.0 L87.8,390.9 L88.9,388.8 L89.9,386.7 L90.9,384.6 L91.9,382.5
		L93.0,380.4 L94.0,378.3 L95.0,376.2 L96.0,374.1 L97.1,372.1 L98.1,370.0 L99.1,367.9 L100.1,365.8
		L101.2,363.8 L102.2,361.7 L103.2,359.7 L104.2,357.6 L105.3,355.6 L106.3,353.5 L107.3,351.5 L108.4,349.4
		L109.4,347.4 L110.4,345.4 L111.4,343.4 L112.5,341.4 L113.5,339.3 L114.5,337.3 L115.5,335.3 L116.6,333.3
		L117.6,331.4 L118.6,329.4 L119.6,327.4 L120.7,325.4 L121.7,323.4 L122.7,321.5 L123.7,319.5 L124.8,317.6
		L125.8,315.6 L126.8,313.7 L127.8,311.7 L128.9,309.8 L129.9,307.9 L130.9,306.0 L131.9,304.1 L133.0,302.2
		L134.0,300.3 L135.0,298.4 L136.0,296.5 L137.1,294.6 L138.1,292.7 L139.1,290.9 L140.1,289.0 L141.2,287.2
		L142.2,285.3 L143.2,283.5 L144.2,281.6 L145.3,279.8 L146.3,278.0 L147.3,276.2 L148.4,274.4 L149.4,272.6
		L150.4,270.8 L151.4,269.0 L152.5,267.2 L153.5,265.5 L154.5,263.7 L155.5,262.0 L156.6,260.2 L157.6,258.5
		L158.6,256.8 L159.6,255.0 L160.7,253.3 L161.7,251.6 L162.7,249.9 L163.7,248.2 L164.8,246.5 L165.8,244.9
		L166.8,243.2 L167.8,241.5 L168.9,239.9 L169.9,238.2 L170.9,236.6 L171.9,235.0 L173.0,233.3 L174.0,231.7
		L175.0,230.1 L176.0,228.5 L177.1,226.9 L178.1,225.4 L179.1,223.8 L180.1,222.2 L181.2,220.7 L182.2,219.1
		L183.2,217.6 L184.2,216.0 L185.3,214.5 L186.3,213.0 L187.3,211.5 L188.3,210.0 L189.4,208.5 L190.4,207.0
		L191.4,205.5 L192.5,204.1 L193.5,202.6 L194.5,201.2 L195.5,199.7 L196.6,198.3 L197.6,196.9 L198.6,195.4
		L199.6,194.0 L200.7,192.6 L201.7,191.2 L202.7,189.9 L203.7,188.5 L204.8,187.1 L205.8,185.8 L206.8,184.4
		L207.8,183.1 L208.9,181.7 L209.9,180.4 L210.9,179.1 L211.9,177.8 L213.0,176.5 L214.0,175.2 L215.0,173.9
		L216.0,172.6 L217.1,171.3 L218.1,170.1 L219.1,168.8 L220.1,167.6 L221.2,166.3 L222.2,165.1 L223.2,163.9
		L224.2,162.7 L225.3,161.5 L226.3,160.3 L227.3,159.1 L228.3,157.9 L229.4,156.7 L230.4,155.5 L231.4,154.4
		L232.4,153.2 L233.5,152.1 L234.5,151.0 L235.5,149.8 L236.6,148.7 L237.6,147.6 L238.6,146.5 L239.6,145.4
		L240.7,144.3 L241.7,143.2 L242.7,142.1 L243.7,141.1 L244.8,140.0 L245.8,139.0 L246.8,137.9 L247.8,136.9
		L248.9,135.9 L249.9,134.8 L250.9,133.8 L251.9,132.8 L253.0,131.8 L254.0,130.8 L255.0,129.8 L256.0,128.9
		L257.1,127.9 L258.1,126.9 L259.1,126.0 L260.1,125.0 L261.2,124.1 L262.2,123.1 L263.2,122.2 L264.2,121.3
		L265.3,120.4 L266.3,119.5 L267.3,118.6 L268.3,117.7 L269.4,116.8 L270.4,115.9 L271.4,115.0 L272.4,114.2
		L273.5,113.3 L274.5,112.5 L275.5,111.6 L276.6,110.8 L277.6,109.9 L278.6,109.1 L279.6,108.3 L280.7,107.5
		L281.7,106.7 L282.7,105.9 L283.7,105.1 L284.8,104.3 L285.8,103.5 L286.8,102.7 L287.8,101.9 L288.9,101.2
		L289.9,100.4 L290.9,99.7 L291.9,98.9 L293.0,98.2 L294.0,97.5 L295.0,96.7 L296.0,96.0 L297.1,95.3
		L298.1,94.6 L299.1,93.9 L300.1,93.2 L301.2,92.5 L302.2,91.8 L303.2,91.1 L304.2,90.4 L305.3,89.8
		L306.3,89.1 L307.3,88.4 L308.3,87.8 L309.4,87.1 L310.4,86.5 L311.4,85.8 L312.4,85.2 L313.5,84.6
		L314.5,84.0 L315.5,83.3 L316.5,82.7 L317.6,82.1 L318.6,81.5 L319.6,80.9 L320.7,80.3 L321.7,79.8
		L322.7,79.2 L323.7,78.6 L324.8,78.0 L325.8,77.5 L326.8,76.9 L327.8,76.3 L328.9,75.8 L329.9,75.2
		L330.9,74.7 L331.9,74.2 L333.0,73.6 L334.0,73.1 L335.0,72.6 L336.0,72.0 L337.1,71.5 L338.1,71.0
		L339.1,70.5 L340.1,70.0 L341.2,69.5 L342.2,69.0 L343.2,68.5 L344.2,68.0 L345.3,67.6 L346.3,67.1
		L347.3,66.6 L348.3,66.2 L349.4,65.7 L350.4,65.2 L351.4,64.8 L352.4,64.3 L353.5,63.9 L354.5,63.4
		L355.5,63.0 L356.5,62.6 L357.6,62.1 L358.6,61.7 L359.6,61.3 L360.6,60.8 L361.7,60.4 L362.7,60.0
		L363.7,59.6 L364.8,59.2 L365.8,58.8 L366.8,58.4 L367.8,58.0 L368.9,57.6 L369.9,57.2 L370.9,56.8
		L371.9,56.5 L373.0,56.1 L374.0,55.7 L375.0,55.3 L376.0,55.0 L377.1,54.6 L378.1,54.3 L379.1,53.9
		L380.1,53.5 L381.2,53.2 L382.2,52.8 L383.2,52.5 L384.2,52.2 L385.3,51.8 L386.3,51.5 L387.3,51.1
		L388.3,50.8 L389.4,50.5 L390.4,50.2 L391.4,49.8 L392.4,49.5 L393.5,49.2 L394.5,48.9 L395.5,48.6
		L396.5,48.3 L397.6,48.0 L398.6,47.7 L399.6,47.4 L400.6,47.1 L401.7,46.8 L402.7,46.5 L403.7,46.2
		L404.8,45.9 L405.8,45.7 L406.8,45.4 L407.8,45.1 L408.9,44.8 L409.9,44.6 L410.9,44.3 L411.9,44.0
		L413.0,43.8 L414.0,43.5 L415.0,43.3 L416.0,43.0 L417.1,42.7 L418.1,42.5 L419.1,42.2 L420.1,42.0
		L421.2,41.7 L422.2,41.5 L423.2,41.3 L424.2,41.0 L425.3,40.8 L426.3,40.6 L427.3,40.3 L428.3,40.1
		L429.4,39.9 L430.4,39.7 L431.4,39.4 L432.4,39.2 L433.5,39.0 L434.5,38.8 L435.5,38.6 L436.5,38.3
		L437.6,38.1 L438.6,37.9 L439.6,37.7 L440.6,37.5 L441.7,37.3 L442.7,37.1 L443.7,36.9 L444.7,36.7
		L445.8,36.5 L446.8,36.3 L447.8,36.1 L448.9,36.0 L449.9,35.8 L450.9,35.6 L451.9,35.4 L453.0,35.2
		L454.0,35.0 L455.0,34.9 L456.0,34.7 L457.1,34.5 L458.1,34.3 L459.1,34.2 L460.1,34.0 L461.2,33.8
		L462.2,33.7 L463.2,33.5 L464.2,33.3 L465.3,33.2 L466.3,33.0 L467.3,32.8 L468.3,32.7 L469.4,32.5
		L470.4,32.4 L471.4,32.2 L472.4,32.1 L473.5,31.9 L474.5,31.8 L475.5,31.6 L476.5,31.5 L477.6,31.3
		L478.6,31.2 L479.6,31.0 L480.6,30.9 L481.7,30.8 L482.7,30.6 L483.7,30.5 L484.7,30.4 L485.8,30.2
		L486.8,30.1 L487.8,30.0 L488.8,29.8 L489.9,29.7 L490.9,29.6 L491.9,29.5 L493.0,29.3 L494.0,29.2
		L495.0,29.1 L496.0,29.0 L497.1,28.8 L498.1,28.7 L499.1,28.6 L500.1,28.5 L501.2,28.4 L502.2,28.3
		L503.2,28.1 L504.2,28.0 L505.3,27.9 L506.3,27.8 L507.3,27.7 L508.3,27.6 L509.4,27.5 L510.4,27.4
		L511.4,27.3 L512.4,27.2 L513.5,27.1 L514.5,27.0 L515.5,26.9 L516.5,26.8 L517.6,26.7 L518.6,26.6
		L519.6,26.5 L520.6,26.4 L521.7,26.3 L522.7,26.2 L523.7,26.1 L524.7,26.0 L525.8,25.9 L526.8,25.8
		L527.8,25.7 L528.8,25.6 L529.9,25.5 L530.9,25.5 L531.9,25.4 L533.0,25.3 L534.0,25.2 L535.0,25.1
		L536.0,25.0 L537.1,25.0 L538.1,24.9 L539.1,24.8 L540.1,24.7 L541.2,24.6 L542.2,24.6 L543.2,24.5
		L544.2,24.4 L545.3,24.3 L546.3,24.3 L547.3,24.2 L548.3,24.1 L549.4,24.0 L550.4,24.0 L551.4,23.9
		L552.4,23.8 L553.5,23.7 L554.5,23.7 L555.5,23.6 L556.5,23.5 L557.6,23.5 L558.6,23.4 L559.6,23.3
		L560.6,23.3 L561.7,23.2 L562.7,23.1 L563.7,23.1 L564.7,23.0 L565.8,23.0 L566.8,22.9 L567.8,22.8
		L568.8,22.8 L569.9,22.7 L570.9,22.7 L571.9,22.6 L572.9,22.5 L574.0,22.5 L575.0,22.4  '/></g>
	</g>
<g fill="none" color="#FFFFFF" stroke="rgb(148,   0, 211)" stroke-width="2.00" stroke-linecap="butt" stroke-linejoin="miter">
</g>
<g fill="none" color="black" stroke="currentColor" stroke-width="2.00" stroke-linecap="butt" stroke-linejoin="miter">
</g>
<g fill="none" color="black" stroke="black" stroke-width="1.00" stroke-linecap="butt" stroke-linejoin="miter">
</g>
<g fill="none" color="black" stroke="currentColor" stroke-width="1.00" stroke-linecap="butt" stroke-linejoin="miter">
	<path stroke='black'  d='M62.2,16.7 L62.2,444.0 L575.0,444.0 L575.0,16.7 L62.2,16.7 Z  '/></g>
<g fill="none" color="black" stroke="currentColor" stroke-width="1.00" stroke-linecap="butt" stroke-linejoin="miter">
</g>
</g>
</svg>

