<?xml version="1.0" encoding="utf-8"  standalone="no"?>
<!DOCTYPE svg PUBLIC "-//W3C//DTD SVG 1.1//EN"
 "http://www.w3.org/Graphics/SVG/1.1/DTD/svg11.dtd">
<svg 
 width="640" height="480"
 viewBox="0 0 640 480"
 xmlns="http://www.w3.org/2000/svg"
 xmlns:xlink="http://www.w3.org/1999/xlink"
>

<title>Gnuplot</title>
<desc>Produced by GNUPLOT 5.0 patchlevel 3 </desc>

<g id="gnuplot_canvas">

<rect x="0" y="0" width="640" height="480" fill="#ffffff"/>
<defs>

	<circle id='gpDot' r='0.5' stroke-width='0.5'/>
	<path id='gpPt0' stroke-width='0.222' stroke='currentColor' d='M-1,0 h2 M0,-1 v2'/>
	<path id='gpPt1' stroke-width='0.222' stroke='currentColor' d='M-1,-1 L1,1 M1,-1 L-1,1'/>
	<path id='gpPt2' stroke-width='0.222' stroke='currentColor' d='M-1,0 L1,0 M0,-1 L0,1 M-1,-1 L1,1 M-1,1 L1,-1'/>
	<rect id='gpPt3' stroke-width='0.222' stroke='currentColor' x='-1' y='-1' width='2' height='2'/>
	<rect id='gpPt4' stroke-width='0.222' stroke='currentColor' fill='currentColor' x='-1' y='-1' width='2' height='2'/>
	<circle id='gpPt5' stroke-width='0.222' stroke='currentColor' cx='0' cy='0' r='1'/>
	<use xlink:href='#gpPt5' id='gpPt6' fill='currentColor' stroke='none'/>
	<path id='gpPt7' stroke-width='0.222' stroke='currentColor' d='M0,-1.33 L-1.33,0.67 L1.33,0.67 z'/>
	<use xlink:href='#gpPt7' id='gpPt8' fill='currentColor' stroke='none'/>
	<use xlink:href='#gpPt7' id='gpPt9' stroke='currentColor' transform='rotate(180)'/>
	<use xlink:href='#gpPt9' id='gpPt10' fill='currentColor' stroke='none'/>
	<use xlink:href='#gpPt3' id='gpPt11' stroke='currentColor' transform='rotate(45)'/>
	<use xlink:href='#gpPt11' id='gpPt12' fill='currentColor' stroke='none'/>
	<path id='gpPt13' stroke-width='0.222' stroke='currentColor' d='M0,1.330 L1.265,0.411 L0.782,-1.067 L-0.782,-1.076 L-1.265,0.411 z'/>
	<use xlink:href='#gpPt13' id='gpPt14' fill='currentColor' stroke='none'/>
	<filter id='textbox' filterUnits='objectBoundingBox' x='0' y='0' height='1' width='1'>
	  <feFlood flood-color='#FFFFFF' flood-opacity='1' result='bgnd'/>
	  <feComposite in='SourceGraphic' in2='bgnd' operator='atop'/>
	</filter>
	<filter id='greybox' filterUnits='objectBoundingBox' x='0' y='0' height='1' width='1'>
	  <feFlood flood-color='lightgrey' flood-opacity='1' result='grey'/>
	  <feComposite in='SourceGraphic' in2='grey' operator='atop'/>
	</filter>
</defs>
<g fill="none" color="#FFFFFF" stroke="currentColor" stroke-width="1.00" stroke-linecap="butt" stroke-linejoin="miter">
</g>
<g fill="none" color="black" stroke="currentColor" stroke-width="1.00" stroke-linecap="butt" stroke-linejoin="miter">
	<path stroke='black'  d='M80.9,413.4 L71.9,413.4 M514.0,413.4 L523.0,413.4  '/>	<g transform="translate(63.6,417.9)" stroke="none" fill="black" font-family="Arial" font-size="12.00"  text-anchor="end">
		<text><tspan font-family="Arial" >-1</tspan></text>
	</g>
</g>
<g fill="none" color="black" stroke="currentColor" stroke-width="1.00" stroke-linecap="butt" stroke-linejoin="miter">
	<path stroke='black'  d='M80.9,374.5 L71.9,374.5 M514.0,374.5 L523.0,374.5  '/>	<g transform="translate(63.6,379.0)" stroke="none" fill="black" font-family="Arial" font-size="12.00"  text-anchor="end">
		<text><tspan font-family="Arial" >-0.8</tspan></text>
	</g>
</g>
<g fill="none" color="black" stroke="currentColor" stroke-width="1.00" stroke-linecap="butt" stroke-linejoin="miter">
	<path stroke='black'  d='M80.9,335.6 L71.9,335.6 M514.0,335.6 L523.0,335.6  '/>	<g transform="translate(63.6,340.1)" stroke="none" fill="black" font-family="Arial" font-size="12.00"  text-anchor="end">
		<text><tspan font-family="Arial" >-0.6</tspan></text>
	</g>
</g>
<g fill="none" color="black" stroke="currentColor" stroke-width="1.00" stroke-linecap="butt" stroke-linejoin="miter">
	<path stroke='black'  d='M80.9,296.6 L71.9,296.6 M514.0,296.6 L523.0,296.6  '/>	<g transform="translate(63.6,301.1)" stroke="none" fill="black" font-family="Arial" font-size="12.00"  text-anchor="end">
		<text><tspan font-family="Arial" >-0.4</tspan></text>
	</g>
</g>
<g fill="none" color="black" stroke="currentColor" stroke-width="1.00" stroke-linecap="butt" stroke-linejoin="miter">
	<path stroke='black'  d='M80.9,257.7 L71.9,257.7 M514.0,257.7 L523.0,257.7  '/>	<g transform="translate(63.6,262.2)" stroke="none" fill="black" font-family="Arial" font-size="12.00"  text-anchor="end">
		<text><tspan font-family="Arial" >-0.2</tspan></text>
	</g>
</g>
<g fill="none" color="black" stroke="currentColor" stroke-width="1.00" stroke-linecap="butt" stroke-linejoin="miter">
	<path stroke='black'  d='M80.9,218.8 L71.9,218.8 M514.0,218.8 L523.0,218.8  '/>	<g transform="translate(63.6,223.3)" stroke="none" fill="black" font-family="Arial" font-size="12.00"  text-anchor="end">
		<text><tspan font-family="Arial" > 0</tspan></text>
	</g>
</g>
<g fill="none" color="black" stroke="currentColor" stroke-width="1.00" stroke-linecap="butt" stroke-linejoin="miter">
	<path stroke='black'  d='M80.9,179.9 L71.9,179.9 M514.0,179.9 L523.0,179.9  '/>	<g transform="translate(63.6,184.4)" stroke="none" fill="black" font-family="Arial" font-size="12.00"  text-anchor="end">
		<text><tspan font-family="Arial" > 0.2</tspan></text>
	</g>
</g>
<g fill="none" color="black" stroke="currentColor" stroke-width="1.00" stroke-linecap="butt" stroke-linejoin="miter">
	<path stroke='black'  d='M80.9,140.9 L71.9,140.9 M514.0,140.9 L523.0,140.9  '/>	<g transform="translate(63.6,145.4)" stroke="none" fill="black" font-family="Arial" font-size="12.00"  text-anchor="end">
		<text><tspan font-family="Arial" > 0.4</tspan></text>
	</g>
</g>
<g fill="none" color="black" stroke="currentColor" stroke-width="1.00" stroke-linecap="butt" stroke-linejoin="miter">
	<path stroke='black'  d='M80.9,102.0 L71.9,102.0 M514.0,102.0 L523.0,102.0  '/>	<g transform="translate(63.6,106.5)" stroke="none" fill="black" font-family="Arial" font-size="12.00"  text-anchor="end">
		<text><tspan font-family="Arial" > 0.6</tspan></text>
	</g>
</g>
<g fill="none" color="black" stroke="currentColor" stroke-width="1.00" stroke-linecap="butt" stroke-linejoin="miter">
	<path stroke='black'  d='M80.9,63.1 L71.9,63.1 M514.0,63.1 L523.0,63.1  '/>	<g transform="translate(63.6,67.6)" stroke="none" fill="black" font-family="Arial" font-size="12.00"  text-anchor="end">
		<text><tspan font-family="Arial" > 0.8</tspan></text>
	</g>
</g>
<g fill="none" color="black" stroke="currentColor" stroke-width="1.00" stroke-linecap="butt" stroke-linejoin="miter">
	<path stroke='black'  d='M80.9,413.4 L80.9,422.4 M80.9,63.1 L80.9,54.1  '/>	<g transform="translate(80.9,444.9)" stroke="none" fill="black" font-family="Arial" font-size="12.00"  text-anchor="middle">
		<text><tspan font-family="Arial" >-1</tspan></text>
	</g>
</g>
<g fill="none" color="black" stroke="currentColor" stroke-width="1.00" stroke-linecap="butt" stroke-linejoin="miter">
	<path stroke='black'  d='M189.2,413.4 L189.2,422.4 M189.2,63.1 L189.2,54.1  '/>	<g transform="translate(189.2,444.9)" stroke="none" fill="black" font-family="Arial" font-size="12.00"  text-anchor="middle">
		<text><tspan font-family="Arial" >-0.5</tspan></text>
	</g>
</g>
<g fill="none" color="black" stroke="currentColor" stroke-width="1.00" stroke-linecap="butt" stroke-linejoin="miter">
	<path stroke='black'  d='M297.5,413.4 L297.5,422.4 M297.5,63.1 L297.5,54.1  '/>	<g transform="translate(297.5,444.9)" stroke="none" fill="black" font-family="Arial" font-size="12.00"  text-anchor="middle">
		<text><tspan font-family="Arial" > 0</tspan></text>
	</g>
</g>
<g fill="none" color="black" stroke="currentColor" stroke-width="1.00" stroke-linecap="butt" stroke-linejoin="miter">
	<path stroke='black'  d='M405.7,413.4 L405.7,422.4 M405.7,63.1 L405.7,54.1  '/>	<g transform="translate(405.7,444.9)" stroke="none" fill="black" font-family="Arial" font-size="12.00"  text-anchor="middle">
		<text><tspan font-family="Arial" > 0.5</tspan></text>
	</g>
</g>
<g fill="none" color="black" stroke="currentColor" stroke-width="1.00" stroke-linecap="butt" stroke-linejoin="miter">
	<path stroke='black'  d='M514.0,413.4 L514.0,422.4 M514.0,63.1 L514.0,54.1  '/>	<g transform="translate(514.0,444.9)" stroke="none" fill="black" font-family="Arial" font-size="12.00"  text-anchor="middle">
		<text><tspan font-family="Arial" > 1</tspan></text>
	</g>
</g>
<g fill="none" color="black" stroke="currentColor" stroke-width="1.00" stroke-linecap="butt" stroke-linejoin="miter">
</g>
<g fill="none" color="black" stroke="currentColor" stroke-width="1.00" stroke-linecap="butt" stroke-linejoin="miter">
	<path stroke='black'  d='M80.9,63.1 L80.9,413.4 L514.0,413.4 L514.0,63.1 L80.9,63.1 Z  '/></g>
<g fill="none" color="black" stroke="currentColor" stroke-width="1.00" stroke-linecap="butt" stroke-linejoin="miter">
	<g transform="translate(17.6,238.3) rotate(270)" stroke="none" fill="black" font-family="Arial" font-size="12.00"  text-anchor="middle">
		<text><tspan font-family="Arial" >y</tspan></text>
	</g>
</g>
<g fill="none" color="black" stroke="currentColor" stroke-width="1.00" stroke-linecap="butt" stroke-linejoin="miter">
	<g transform="translate(297.4,471.9)" stroke="none" fill="black" font-family="Arial" font-size="12.00"  text-anchor="middle">
		<text><tspan font-family="Arial" >x</tspan></text>
	</g>
</g>
<g fill="none" color="black" stroke="currentColor" stroke-width="1.00" stroke-linecap="butt" stroke-linejoin="miter">
	<g transform="translate(297.4,31.6)" stroke="none" fill="black" font-family="Arial" font-size="12.00"  text-anchor="middle">
		<text><tspan font-family="Arial" >neural network curve fitting</tspan></text>
	</g>
</g>
	<g id="gnuplot_plot_1" ><title>data</title>
<g fill="none" color="black" stroke="currentColor" stroke-width="1.00" stroke-linecap="butt" stroke-linejoin="miter">
	<g transform="translate(572.8,76.6)" stroke="none" fill="black" font-family="Arial" font-size="12.00"  text-anchor="end">
		<text><tspan font-family="Arial" >data</tspan></text>
	</g>
</g>
<g fill="none" color="black" stroke="currentColor" stroke-width="1.00" stroke-linecap="butt" stroke-linejoin="miter">
	<use xlink:href='#gpPt5' transform='translate(80.9,209.3) scale(4.50)' color='rgb(148,   0, 211)'/>
	<use xlink:href='#gpPt5' transform='translate(103.7,165.3) scale(4.50)' color='rgb(148,   0, 211)'/>
	<use xlink:href='#gpPt5' transform='translate(126.5,122.1) scale(4.50)' color='rgb(148,   0, 211)'/>
	<use xlink:href='#gpPt5' transform='translate(149.3,98.1) scale(4.50)' color='rgb(148,   0, 211)'/>
	<use xlink:href='#gpPt5' transform='translate(172.1,109.4) scale(4.50)' color='rgb(148,   0, 211)'/>
	<use xlink:href='#gpPt5' transform='translate(194.9,161.5) scale(4.50)' color='rgb(148,   0, 211)'/>
	<use xlink:href='#gpPt5' transform='translate(217.7,244.0) scale(4.50)' color='rgb(148,   0, 211)'/>
	<use xlink:href='#gpPt5' transform='translate(240.5,332.3) scale(4.50)' color='rgb(148,   0, 211)'/>
	<use xlink:href='#gpPt5' transform='translate(263.3,395.8) scale(4.50)' color='rgb(148,   0, 211)'/>
	<use xlink:href='#gpPt5' transform='translate(286.1,410.5) scale(4.50)' color='rgb(148,   0, 211)'/>
	<use xlink:href='#gpPt5' transform='translate(308.8,369.3) scale(4.50)' color='rgb(148,   0, 211)'/>
	<use xlink:href='#gpPt5' transform='translate(331.6,285.8) scale(4.50)' color='rgb(148,   0, 211)'/>
	<use xlink:href='#gpPt5' transform='translate(354.4,188.9) scale(4.50)' color='rgb(148,   0, 211)'/>
	<use xlink:href='#gpPt5' transform='translate(377.2,110.4) scale(4.50)' color='rgb(148,   0, 211)'/>
	<use xlink:href='#gpPt5' transform='translate(400.0,72.9) scale(4.50)' color='rgb(148,   0, 211)'/>
	<use xlink:href='#gpPt5' transform='translate(422.8,81.7) scale(4.50)' color='rgb(148,   0, 211)'/>
	<use xlink:href='#gpPt5' transform='translate(445.6,125.6) scale(4.50)' color='rgb(148,   0, 211)'/>
	<use xlink:href='#gpPt5' transform='translate(468.4,183.5) scale(4.50)' color='rgb(148,   0, 211)'/>
	<use xlink:href='#gpPt5' transform='translate(491.2,234.6) scale(4.50)' color='rgb(148,   0, 211)'/>
	<use xlink:href='#gpPt5' transform='translate(514.0,265.3) scale(4.50)' color='rgb(148,   0, 211)'/>
	<use xlink:href='#gpPt5' transform='translate(602.2,72.1) scale(4.50)' color='rgb(148,   0, 211)'/>
</g>
	</g>
	<g id="gnuplot_plot_2" ><title>fit</title>
<g fill="none" color="black" stroke="currentColor" stroke-width="1.00" stroke-linecap="butt" stroke-linejoin="miter">
	<g transform="translate(572.8,94.6)" stroke="none" fill="black" font-family="Arial" font-size="12.00"  text-anchor="end">
		<text><tspan font-family="Arial" >fit</tspan></text>
	</g>
</g>
<g fill="none" color="black" stroke="currentColor" stroke-width="1.00" stroke-linecap="butt" stroke-linejoin="miter">
	<path stroke='rgb(  0, 158, 115)'  d='M581.1,90.1 L623.3,90.1 M80.9,207.6 L84.3,202.0 L87.7,196.0 L91.1,189.8 L94.4,183.5 L97.8,177.0
		L101.2,170.3 L104.6,163.6 L108.0,156.8 L111.4,150.1 L114.7,143.5 L118.1,137.1 L121.5,130.9 L124.9,125.1
		L128.3,119.7 L131.7,114.7 L135.0,110.1 L138.4,106.2 L141.8,102.8 L145.2,100.3 L148.6,98.6 L152.0,97.8
		L155.3,98.0 L158.7,99.2 L162.1,101.4 L165.5,104.4 L168.9,108.3 L172.3,112.8 L175.6,117.9 L179.0,123.6
		L182.4,129.8 L185.8,136.7 L189.2,144.2 L192.6,152.5 L195.9,161.8 L199.3,172.1 L202.7,183.4 L206.1,195.8
		L209.5,209.1 L212.9,223.2 L216.2,237.8 L219.6,252.7 L223.0,267.6 L226.4,282.3 L229.8,296.5 L233.2,310.1
		L236.5,322.9 L239.9,334.8 L243.3,345.9 L246.7,356.0 L250.1,365.3 L253.5,373.8 L256.8,381.5 L260.2,388.4
		L263.6,394.6 L267.0,400.0 L270.4,404.6 L273.8,408.1 L277.1,410.7 L280.5,412.1 L283.9,412.1 L287.3,410.9
		L290.7,408.1 L294.1,403.9 L297.5,398.2 L300.8,391.1 L304.2,382.7 L307.6,373.1 L311.0,362.4 L314.4,350.9
		L317.8,338.7 L321.1,326.0 L324.5,312.9 L327.9,299.7 L331.3,286.3 L334.7,273.0 L338.1,259.6 L341.4,246.3
		L344.8,233.0 L348.2,219.6 L351.6,206.3 L355.0,193.0 L358.4,179.6 L361.7,166.4 L365.1,153.3 L368.5,140.5
		L371.9,128.3 L375.3,116.7 L378.7,106.1 L382.0,96.5 L385.4,88.3 L388.8,81.5 L392.2,76.3 L395.6,72.5
		L399.0,70.3 L402.3,69.5 L405.7,70.0 L409.1,71.5 L412.5,73.9 L415.9,77.1 L419.3,80.8 L422.6,85.0
		L426.0,89.6 L429.4,94.6 L432.8,100.1 L436.2,106.1 L439.6,112.6 L442.9,119.6 L446.3,127.1 L449.7,135.1
		L453.1,143.5 L456.5,152.3 L459.9,161.1 L463.2,170.1 L466.6,178.9 L470.0,187.6 L473.4,196.1 L476.8,204.3
		L480.2,212.2 L483.5,219.7 L486.9,226.8 L490.3,233.3 L493.7,239.2 L497.1,244.2 L500.5,248.5 L503.8,251.7
		L507.2,253.8 L510.6,254.9 L514.0,254.9  '/></g>
	</g>
<g fill="none" color="#FFFFFF" stroke="rgb(  0, 158, 115)" stroke-width="2.00" stroke-linecap="butt" stroke-linejoin="miter">
</g>
<g fill="none" color="black" stroke="currentColor" stroke-width="2.00" stroke-linecap="butt" stroke-linejoin="miter">
</g>
<g fill="none" color="black" stroke="black" stroke-width="1.00" stroke-linecap="butt" stroke-linejoin="miter">
</g>
<g fill="none" color="black" stroke="currentColor" stroke-width="1.00" stroke-linecap="butt" stroke-linejoin="miter">
	<path stroke='black'  d='M80.9,63.1 L80.9,413.4 L514.0,413.4 L514.0,63.1 L80.9,63.1 Z  '/></g>
<g fill="none" color="black" stroke="currentColor" stroke-width="1.00" stroke-linecap="butt" stroke-linejoin="miter">
</g>
</g>
</svg>

