Cosine functions are as follows
1 	 0.540302
1.1 	 0.453596
1.2 	 0.362358
1.3 	 0.267499
1.4 	 0.169967
1.5 	 0.0707372
1.6 	 -0.0291995
1.7 	 -0.128844
1.8 	 -0.227202
1.9 	 -0.32329
2 	 -0.416147
2.1 	 -0.504846
2.2 	 -0.588501
2.3 	 -0.666276
2.4 	 -0.737394
2.5 	 -0.801144
2.6 	 -0.856889
2.7 	 -0.904072
2.8 	 -0.942222
2.9 	 -0.970958
3 	 -0.989992
3.1 	 -0.999135
3.2 	 -0.998295
3.3 	 -0.98748
3.4 	 -0.966798
3.5 	 -0.936457
3.6 	 -0.896758
3.7 	 -0.8481
3.8 	 -0.790968
3.9 	 -0.725932
4 	 -0.653644
